
 episode 0 score -17747.042794766716
 episode 1 score -16824.13838551004
 episode 2 score -12604.835705545116
 episode 3 score -15733.875942911665
 episode 4 score -16318.581738792143
 episode 5 score -18583.675552524786
 episode 6 score -12894.444468830854
 episode 7 score -17066.549131271764
 episode 8 score -18134.360088828285
 episode 9 score -19537.332615839117